^C:\USERS\UDOVECHENKO\DESKTOP\12\MPI_2\MPI_1\DEBUG\MPI_1.OBJ|C:\USERS\UDOVECHENKO\DESKTOP\12\MPI_2\MPI_1\DEBUG\STDAFX.OBJ
C:\USERS\UDOVECHENKO\DESKTOP\12\MPI_2\DEBUG\MPI_1.ILK
C:\USERS\UDOVECHENKO\DESKTOP\12\MPI_2\DEBUG\MPI_1.EXE
C:\USERS\UDOVECHENKO\DESKTOP\12\MPI_2\DEBUG\MPI_1.PDB
